…
## ¿Cuál es el top 5 de productos más vendidos, para el 2016 y 2017, por ciudad?

``` r
datos %>% 
  filter(anio == 2017 | anio == 2016) %>%
    group_by(ciudad, anio, Item.Description) %>%
    summarise(ventas_totales = sum(ventas, na.rm = TRUE)) %>%
    slice_max(order_by = ventas_totales, n = 5)
```

    ## `summarise()` has grouped output by 'ciudad', 'anio'. You can override using
    ## the `.groups` argument.

    ## # A tibble: 30 × 4
    ## # Groups:   ciudad, anio [6]
    ##    ciudad        anio Item.Description              ventas_totales
    ##    <chr>        <dbl> <chr>                                  <dbl>
    ##  1 CEDAR RAPIDS  2016 Malibu Coconut Rum                   138035.
    ##  2 CEDAR RAPIDS  2016 Bailey's Original Irish Cream        103913.
    ##  3 CEDAR RAPIDS  2016 Rumchata                              83817.
    ##  4 CEDAR RAPIDS  2016 Uv Blue (raspberry) Vodka             69095.
    ##  5 CEDAR RAPIDS  2016 Bacardi Limon                         42594.
    ##  6 CEDAR RAPIDS  2017 Malibu Coconut Rum                    14058.
    ##  7 CEDAR RAPIDS  2017 Bailey's Original Irish Cream         11052.
    ##  8 CEDAR RAPIDS  2017 Rumchata                               8410.
    ##  9 CEDAR RAPIDS  2017 Bacardi Limon                          4909.
    ## 10 CEDAR RAPIDS  2017 Bailey's Salted Caramel                3056.
    ## # ℹ 20 more rows
